# Blender v2.62 (sub 0) OBJ File: ''
# www.blender.org
o Mesh_Mesh_Mesh_Mesh.001_Grid
v -99.999855 -23.651218 50.105148
v 0.000000 -32.061516 49.865303
v 0.000000 0.000000 0.000000
v -100.000000 0.000000 0.000000
v -99.462112 -42.187302 107.612434
v -0.206425 -58.284267 92.336700
v -81.214523 -69.859520 156.500595
v 15.006989 -86.572357 126.469032
v -20.559750 -118.381088 219.189240
v 38.654320 -132.931580 165.255737
v 13.579617 -142.659988 255.188202
v 52.932968 -145.826385 186.630295
v 43.336891 -162.199432 275.784973
v 78.329437 -165.127258 204.131119
v 100.636108 -207.052994 295.234924
v 135.511612 -208.583862 223.480560
vt 0.292986 0.115668
vt 0.069267 0.252126
vt 0.000000 0.131151
vt 0.225804 0.000000
vt 0.369880 0.249424
vt 0.128815 0.360881
vt 0.396971 0.392507
vt 0.142009 0.471130
vt 0.352658 0.622894
vt 0.141313 0.600073
vt 0.323429 0.764135
vt 0.137037 0.675047
vt 0.282521 0.863436
vt 0.100169 0.762611
vt 0.181539 1.000000
vt 0.000000 0.897719
vn 0.071853 0.838964 0.539422
vn -0.000000 0.904315 0.426865
vn 0.080538 0.948907 0.305104
vn 0.213826 0.830739 0.513956
vn 0.208041 0.882472 0.421855
vn 0.302043 0.795774 0.524893
vn 0.277785 0.870938 0.405342
vn 0.580029 0.676065 0.454426
vn 0.409619 0.887701 0.210236
vn 0.452069 0.864537 0.219565
vn 0.432402 0.877438 0.207681
vn 0.496821 0.842509 0.208200
vn 0.548413 0.802499 0.235030
vn 0.533788 0.810204 0.242157
s off
f 1/1/1 2/2/1 3/3/1
f 1/1/2 3/3/2 4/4/2
f 2/2/3 1/1/3 5/5/3
f 2/2/4 5/5/4 6/6/4
f 6/6/5 5/5/5 7/7/5
f 6/6/6 7/7/6 8/8/6
f 8/8/7 7/7/7 9/9/7
f 8/8/8 9/9/8 10/10/8
f 10/10/9 9/9/9 11/11/9
f 10/10/10 11/11/10 12/12/10
f 12/12/11 11/11/11 13/13/11
f 12/12/12 13/13/12 14/14/12
f 14/14/13 13/13/13 15/15/13
f 14/14/14 15/15/14 16/16/14
